<svg width="1000" height="198" viewBox="0 0 1000 198" fill="none" xmlns="http://www.w3.org/2000/svg">
<rect x="131.485" y="69.2025" width="55.362" height="55.362" rx="12.5178" fill="#37383C"/>
<rect y="69.2025" width="55.362" height="55.362" rx="12.5178" fill="#24292E"/>
<rect y="138.405" width="55.362" height="55.362" rx="12.5178" fill="#24292E"/>
<rect x="65.7423" y="69.2025" width="55.362" height="55.362" rx="12.5178" fill="#38C972"/>
<rect width="55.362" height="55.362" rx="12.5178" fill="#38C972"/>
<rect x="65.7423" y="138.405" width="55.362" height="55.362" rx="12.5178" fill="#37383C"/>
<rect x="132.638" width="55.362" height="55.362" rx="12.5178" fill="#24292E"/>
<rect x="65.7423" width="55.362" height="55.362" rx="12.5178" fill="#38C972"/>
<rect y="69.2025" width="55.362" height="55.362" rx="12.5178" fill="#38C972"/>
<rect x="131.485" y="138.405" width="55.362" height="55.362" rx="12.5178" fill="#252628"/>
<rect x="132.638" width="55.362" height="55.362" rx="12.5178" fill="#38C972"/>
<rect y="138.405" width="55.362" height="55.362" rx="12.5178" fill="#38C972"/>
<path d="M264 164.163V29.8365H350.053V50.2348H288.334V86.7025H344.15V107.101H288.334V164.163H264Z" fill="white"/>
<path d="M372.698 164.163H346.725L394.014 29.8365H424.054L471.41 164.163H445.437L409.559 57.384H408.51L372.698 164.163ZM373.551 111.495H444.387V131.041H373.551V111.495Z" fill="white"/>
<path d="M489.103 164.163V29.8365H539.475C549.795 29.8365 558.452 31.6293 565.449 35.2148C572.489 38.8004 577.801 43.8289 581.387 50.3004C585.016 56.7281 586.831 64.2272 586.831 72.7975C586.831 81.4116 584.994 88.8888 581.321 95.2291C577.692 101.526 572.336 106.401 565.252 109.856C558.168 113.266 549.467 114.971 539.147 114.971H503.27V94.77H535.868C541.902 94.77 546.843 93.9392 550.691 92.2776C554.539 90.5722 557.381 88.1017 559.218 84.866C561.098 81.5865 562.038 77.5637 562.038 72.7975C562.038 68.0314 561.098 63.9648 559.218 60.5979C557.337 57.1873 554.473 54.6074 550.625 52.8584C546.778 51.0656 541.815 50.1692 535.737 50.1692H513.436V164.163H489.103ZM558.496 103.297L591.75 164.163H564.596L531.932 103.297H558.496Z" fill="white"/>
<path d="M626.48 164.163H600.506L647.796 29.8365H677.836L725.192 164.163H699.218L663.341 57.384H662.291L626.48 164.163ZM627.332 111.495H698.169V131.041H627.332V111.495Z" fill="white"/>
<path d="M788.403 164.163H742.884V29.8365H789.321C802.658 29.8365 814.114 32.5257 823.69 37.904C833.31 43.2386 840.7 50.9125 845.86 60.9259C851.019 70.9392 853.599 82.9202 853.599 96.8688C853.599 110.861 850.997 122.886 845.794 132.943C840.634 143 833.179 150.718 823.428 156.096C813.721 161.474 802.046 164.163 788.403 164.163ZM767.218 143.109H787.223C796.58 143.109 804.385 141.404 810.638 137.993C816.891 134.539 821.591 129.401 824.74 122.58C827.888 115.715 829.462 107.144 829.462 96.8688C829.462 86.5932 827.888 78.0665 824.74 71.289C821.591 64.4677 816.935 59.3736 810.769 56.0067C804.648 52.596 797.039 50.8907 787.944 50.8907H767.218V143.109Z" fill="white"/>
<path d="M996.748 97C996.748 111.473 994.037 123.87 988.615 134.189C983.236 144.465 975.89 152.336 966.577 157.801C957.307 163.267 946.791 166 935.028 166C923.266 166 912.728 163.267 903.414 157.801C894.144 152.292 886.798 144.399 881.376 134.124C875.998 123.804 873.309 111.43 873.309 97C873.309 82.5266 875.998 70.1521 881.376 59.8764C886.798 49.557 894.144 41.6645 903.414 36.1987C912.728 30.7329 923.266 28 935.028 28C946.791 28 957.307 30.7329 966.577 36.1987C975.89 41.6645 983.236 49.557 988.615 59.8764C994.037 70.1521 996.748 82.5266 996.748 97ZM972.283 97C972.283 86.8118 970.687 78.2196 967.495 71.2234C964.347 64.1835 959.974 58.8707 954.377 55.2852C948.78 51.6559 942.331 49.8413 935.028 49.8413C927.726 49.8413 921.276 51.6559 915.679 55.2852C910.082 58.8707 905.688 64.1835 902.496 71.2234C899.348 78.2196 897.773 86.8118 897.773 97C897.773 107.188 899.348 115.802 902.496 122.842C905.688 129.838 910.082 135.151 915.679 138.78C921.276 142.366 927.726 144.159 935.028 144.159C942.331 144.159 948.78 142.366 954.377 138.78C959.974 135.151 964.347 129.838 967.495 122.842C970.687 115.802 972.283 107.188 972.283 97Z" fill="white"/>
</svg>
