<svg width="64" height="46" viewBox="0 0 64 46" fill="none" xmlns="http://www.w3.org/2000/svg">
<path d="M1.38007 0H47.8765C48.6384 0 49.2555 0.761889 49.2555 1.37897V2.55788C49.2555 3.31977 48.6379 3.93685 47.8765 3.93685H1.38007C0.618182 3.93685 0.00109863 3.17496 0.00109863 2.55788V1.37897C0.00109863 0.617084 0.618687 0 1.38007 0V0Z" fill="white" fill-opacity="0.99"/>
<path d="M1.38007 42.0631H47.8765C48.6384 42.0631 49.2555 42.825 49.2555 43.4421V44.621C49.2555 45.3829 48.6379 46 47.8765 46H1.38007C0.618182 46 0.00109863 45.2381 0.00109863 44.621V43.4421C0.00109863 42.6802 0.618687 42.0631 1.38007 42.0631V42.0631Z" fill="white" fill-opacity="0.99"/>
<path d="M1.38008 21.011H56.1019L52.3579 16.9562C51.7701 16.3516 51.7701 15.3891 52.3579 14.784L52.937 14.2049C53.2289 13.9082 53.6277 13.7408 54.0437 13.7408C54.4603 13.7408 54.859 13.9082 55.1505 14.2049L62.8458 21.8589C63.4326 22.4616 63.4326 23.4216 62.8458 24.0243L55.2058 31.6851C54.9138 31.9819 54.5151 32.1492 54.099 32.1492C53.6825 32.1492 53.2837 31.9819 52.9923 31.6851L52.4131 31.106C51.8254 30.5009 51.8254 29.5385 52.4131 28.9338L56.1365 24.879H1.37897C0.617084 24.879 0 24.2619 0 23.5V22.3899C0 21.6285 0.617109 21.0109 1.37897 21.0109L1.38008 21.011Z" fill="white" fill-opacity="0.99"/>
</svg>
